xil/sparrow/.Xil/Vivado-580-vova-PC/hw_ila_data_1/zip_work/waveform.vcd
$date
        2019-Sep-06 14:58:48
$end
$version
        Vivado v2019.1 (64-bit)
$end
$timescale
        1ps
$end
$scope module dut $end
$var reg 1 " u_sniff_/clr_fifo $end
$var reg 9 # u_sniff_/i_dat_fifo [8:0] $end
$var reg 1 , u_sniff_/we_fifo $end
$var reg 1 - u_sniff_/rd_fifo $end
$var reg 9 . u_sniff_/o_dat_fifo [8:0] $end
$var reg 1 7 u_sniff_/o_fifo_full $end
$var reg 1 8 u_sniff_/o_fifo_empty $end
$var reg 13 9 u_sniff_/o_fifo_cnt [12:0] $end
$var reg 8 F u_sniff_/dp_input [7:0] $end
$var reg 8 N u_sniff_/dm_input [7:0] $end
$var reg 1 V u_sniff_/i_dp $end
$var reg 1 W u_sniff_/i_dm $end
$var reg 1 X u_sniff_/EOP $end
$var reg 1 Y u_sniff_/usb_reset $end
$var reg 1 Z u_sniff_/t_wr_fifo $end
$var reg 1 [ _TRIGGER $end
$var reg 1 \ _WINDOW $end
$var reg 1 ] _GAP $end
$upscope $end
$enddefinitions $end
#0
$dumpvars
0"
b111101110 #
0,
0-
b111101110 .
07
18
b0 9
b0 F
b11111111 N
0V
1W
0X
0Y
0Z
0[
1\
0]
$end
#3848
0W
#3850
b11111110 N
#3852
b11111100 N
#3854
b11111000 N
#3856
b11110000 N
#3858
b11100000 N
#3859
b11000000 N
#3862
b10000000 N
#3864
b0 N
#4094
1W
#4095
1X
#4096
b1 N
1Z
1[
#4097
0X
#4098
1,
b11 N
0Z
#4099
b111 N
#4101
0,
#4102
08
b1 9
b1111 N
#4103
b11111 N
#4105
b111111 N
#4107
b1111111 N
#4110
b11111111 N
#4717
1V
#4719
b1 F
#4720
b11 F
#4722
b111 F
#4724
b1111 F
0W
#4725
b11111110 N
#4727
b11111 F
b11111100 N
#4728
b111111 F
#4729
b11111000 N
#4731
b1111111 F
b11110000 N
#4732
b11111111 F
#4733
b11100000 N
#4734
b11000000 N
#4737
b10000000 N
#4739
b0 N
#4841
1W
#4844
b1 N
#4846
b11 N
#4847
b111 N
#4850
b1111 N
#4852
b11111 N
0V
#4853
b111111 N
#4854
b11111110 F
#4855
b1111111 N
#4856
b11111100 F
#4858
b11111000 F
b11111111 N
#4860
b11110000 F
#4862
b11100000 F
#4864
b11000000 F
#4866
b10000000 F
#4868
b0 F
#4971
1V
#4973
b1 F
#4974
b11 F
#4976
b111 F
#4978
b1111 F
0W
#4979
b11111110 N
#4981
b11111 F
b11111100 N
#4982
b111111 F
b11111000 N
#4984
b1111111 F
#4985
b11110000 N
#4986
b11111111 F
#4987
b11100000 N
#4988
b11000000 N
#4990
b10000000 N
#4993
b0 N
#5095
1W
#5098
b1 N
#5100
b11 N
#5101
b111 N
#5103
b1111 N
#5105
b11111 N
#5106
0V
#5107
b111111 N
#5108
b11111110 F
#5109
b1111111 N
#5110
b11111100 F
#5112
b11111000 F
b11111111 N
#5114
b11110000 F
#5116
b11100000 F
#5118
b11000000 F
#5120
b10000000 F
#5122
b0 F
#5225
1V
#5226
b1 F
#5228
b11 F
#5230
b111 F
#5232
b1111 F
0W
#5234
b11111 F
#5235
b11111110 N
#5236
b111111 F
#5237
b11111100 N
#5238
b1111111 F
b11111000 N
#5240
b11111111 F
#5241
b11110000 N
#5243
b11100000 N
#5244
b11000000 N
#5246
b10000000 N
#5249
b0 N
#5350
1W
#5352
b1 N
#5353
b11 N
#5355
b111 N
#5357
b1111 N
#5359
b11111 N
#5360
0V
#5361
b111111 N
#5362
b11111110 F
#5363
b11111100 F
b1111111 N
#5365
b11111111 N
#5366
b11111000 F
#5368
b11110000 F
#5370
b11100000 F
#5372
b11000000 F
#5374
b10000000 F
#5376
b0 F
#5479
1V
#5480
b1 F
#5482
b11 F
#5484
b111 F
#5485
0W
#5486
b1111 F
#5487
b11111110 N
#5488
b11111 F
#5489
b11111100 N
#5490
b111111 F
b11111000 N
#5492
b1111111 F
#5493
b11110000 N
#5494
b11111111 F
#5495
b11100000 N
#5496
b11000000 N
#5498
b10000000 N
#5501
b0 N
#5677
1Z
#5679
b10000000 #
0Z
#5680
1,
#5682
0,
#5683
b10 9
#5857
1W
#5859
b1 N
#5861
b11 N
#5863
b111 N
#5865
b1111 N
#5867
b11111 N
#5868
0V
#5869
b111111 N
#5870
b11111110 F
#5871
b11111100 F
b1111111 N
#5873
b11111000 F
b11111111 N
#5875
b11110000 F
#5878
b11100000 F
#5879
b11000000 F
#5882
b10000000 F
#5883
b0 F
#5987
1V
#5988
b1 F
#5990
b11 F
#5992
b111 F
#5994
b1111 F
0W
#5995
b11111110 N
#5996
b11111 F
#5997
b11111100 N
#5998
b111111 F
b11111000 N
#6000
b1111111 F
b11110000 N
#6002
b11111111 F
b11100000 N
#6004
b11000000 N
#6006
b10000000 N
#6009
b0 N
#6238
1W
#6240
b1 N
#6242
b11 N
#6244
b111 N
#6246
b1111 N
#6248
b11111 N
#6249
0V
#6250
b11111110 F
b111111 N
#6252
b11111100 F
b1111111 N
#6254
b11111000 F
b11111111 N
#6256
b11110000 F
#6258
b11100000 F
#6260
b11000000 F
#6262
b10000000 F
#6264
b0 F
#6621
1V
#6623
b1 F
#6625
b11 F
#6627
b111 F
#6628
0W
#6629
b1111 F
b11111110 N
#6631
b11111 F
b11111100 N
#6633
b111111 F
b11111000 N
#6635
b1111111 F
b11110000 N
#6637
b11111111 F
b11100000 N
#6639
b11000000 N
#6641
b10000000 N
#6643
b0 N
#6693
1Z
#6695
b1101001 #
0Z
#6696
1,
#6698
0,
#6699
b11 9
#6746
1W
#6748
b1 N
#6750
b11 N
#6752
b111 N
#6754
b1111 N
#6756
b11111 N
0V
#6758
b11111110 F
b111111 N
#6760
b11111100 F
b1111111 N
#6762
b11111000 F
b11111111 N
#6764
b11110000 F
#6766
b11100000 F
#6768
b11000000 F
#6770
b10000000 F
#6772
b0 F
#7129
1V
#7131
b1 F
#7133
b11 F
#7135
b111 F
#7136
0W
#7137
b1111 F
b11111110 N
#7139
b11111 F
b11111100 N
#7141
b111111 F
b11111000 N
#7143
b1111111 F
b11110000 N
#7145
b11111111 F
b11100000 N
#7147
b11000000 N
#7149
b10000000 N
#7151
b0 N
#7254
1W
#7256
b1 N
#7258
b11 N
#7260
b111 N
#7262
b1111 N
#7264
b11111 N
0V
#7266
b11111110 F
b111111 N
#7268
b11111100 F
b1111111 N
#7270
b11111000 F
b11111111 N
#7272
b11110000 F
#7274
b11100000 F
#7276
b11000000 F
#7278
b10000000 F
#7280
b0 F
#7383
1V
#7385
b1 F
#7387
b11 F
#7389
b111 F
#7390
0W
#7391
b1111 F
b11111110 N
#7393
b11111 F
b11111100 N
#7395
b111111 F
b11111000 N
#7397
b1111111 F
b11110000 N
#7399
b11111111 F
b11100000 N
#7401
b11000000 N
#7403
b10000000 N
#7405
b0 N
#7508
1W
#7510
b1 N
#7512
b11 N
#7514
b111 N
#7516
b1111 N
#7518
b11111 N
0V
#7520
b11111110 F
b111111 N
#7522
b11111100 F
b1111111 N
#7524
b11111000 F
b11111111 N
#7526
b11110000 F
#7528
b11100000 F
#7530
b11000000 F
#7532
b10000000 F
#7534
b0 F
#7716
1Z
#7718
b11101011 #
#7719
b10000110 #
1,
0Z
#7721
0,
#7722
b100 9
#7764
1V
#7766
b1 F
#7768
b11 F
#7770
b111 F
#7771
0W
#7772
b1111 F
b11111110 N
#7774
b11111 F
b11111100 N
#7776
b111111 F
b11111000 N
#7778
b1111111 F
b11110000 N
#7780
b11111111 F
b11100000 N
#7782
b11000000 N
#7784
b10000000 N
#7786
b0 N
#7889
1W
#7891
b1 N
#7893
b11 N
#7895
b111 N
#7897
b1111 N
#7899
b11111 N
0V
#7901
b11111110 F
b111111 N
#7903
b11111100 F
b1111111 N
#7905
b11111000 F
b11111111 N
#7907
b11110000 F
#7909
b11100000 F
#7911
b11000000 F
#7913
b10000000 F
#7915
b0 F
#8017
1V
#8018
b1 F
#8020
b11 F
#8022
b111 F
#8024
b1111 F
#8025
0W
#8026
b11111 F
b11111110 N
#8028
b111111 F
b11111100 N
#8030
b1111111 F
b11111000 N
#8032
b11111111 F
b11110000 N
#8034
b11100000 N
#8036
b11000000 N
#8038
b10000000 N
#8040
b0 N
#8143
1W
#8145
b1 N
#8147
b11 N
#8149
b111 N
#8151
b1111 N
#8153
b11111 N
0V
#8155
b11111110 F
b111111 N
#8157
b11111100 F
b1111111 N
#8159
b11111000 F
b11111111 N
#8161
b11110000 F
#8163
b11100000 F
#8165
b11000000 F
#8167
b10000000 F
#8169
b0 F
